{
  "name": "Raport z analizy sekwencjonowania całego genomu",
  "limitations": "Wykorzystana metoda opiera się na analizie DNA wyizolowanego z danego materiału (np. krwi obwodowej, śliny), dlatego może nie odzwierciedlać zmian w DNA występujących się w innych tkankach i komórkach ciała, ani wykrywać mozaicyzmu. Zdolność wykrywania wariantów strukturalnych jest ograniczona z uwagi na zastosowaną technologie krótkich odczytów. Regiony genomu charakteryzujące się wysokim stopniem homologii względem innych rejonów mogą nie zostać właściwie odzwierciedlone. Niskie pokrycie niektórych fragmentów genomu może wpływać na skuteczność detekcji wariantów w nich występujących. Analiza i interpretacja wyników w dużej mierze wykorzystuje informacje zawarte w zewnętrznych bazach danych, co oznacza, że zdolność metody do wykrywania wariantów genetycznych istotnych dla stanu osoby badanej jest ograniczona zakresem i jakością danych dostępnych w tych bazach.",
  "methods": "Genomowe DNA zostało wyizolowane z próbki i zsekwencjonowane przy użyciu technologii NGS. Odczytane sekwencje zostały zmapowane i przeanalizowane w porównaniu do ludzkiego genomu referencyjnego w wersji GRCh38 (bez alternatywnych loci). Eksony genów kodujących białka (określone na podstawie bazy Ensembl) oceniono pod względem głębokości pokrycia oraz jakości mapowania. Warianty genetyczne zostały zidentyfikowane przy narzędzia GATK. Analiza została przeprowadzona przy pomocy systemu Intelliseq Flow, który posiada zaimplementowane zalecenia ACMG w zakresie indentyfikacji, interpretacji i klasyfikacji wariantów.",
  "scope": "Sekwencjonowanie całogenomowe próbki DNA.",
  "type": "genome"
}
