{
  "author": "https://gitlab.com/marpiech, https://gitlab.com/wojciech-galan, https://gitlab.com/kattom",
  "copyright": "Copyright 2019-2020 Intelliseq",
  "changes": {
    "1.2.2": "array input and output from module",
    "1.1.2": "vcf-to-sites-tsv fix: maps removed (do not work on gc)",
    "1.1.1": "vcf-to-sites-tsv fix: files added to output",
    "1.1.0": "vcf with only gtc sites as output",
    "1.0.1": "vcf-beagle-merge bug fixed: now works also with single sample vcf, changed vcf-concat",
    "1.0.0": "first version"
  },
  "name": "VCF imputing",
  "description": "Performs phasing and imputing",
  "input_vcfs_gz": {
   "name": "Vcf gz",
   "description": "Array of bgzipped vcf files (converted from the gtc files)",
   "type": "Array[File]",
   "extension": [
      ".vcf.gz"
    ]
  },
  "input_sample_id": {
    "name": "Sample id",
    "description": "Sample identifier",
    "type": "String",
    "default": "no_id_provided"
  },
  "input_gtc_sites_only": {
    "name": "GTC sites only vcf?",
    "description": "Decides whether only variants present in the input vcf are emitted",
    "type": "Boolean",
    "default": true
  },
  "output_imputed_vcf_gz": {
    "name": "Imputed vcf gz",
    "description": "Imputed vcf file",
    "type": "File"
  },
  "output_imputed_vcf_gz_tbi": {
    "name": "Imputed vcf gz tbi",
    "description": "Index for the imputed vcf",
    "type": "File"
  },
  "output_imputed_vcfs_gz": {
    "name": "Imputed vcfs",
    "description": "Array of imputed vcfs",
    "type": "Array[File]"
  },
  "output_imputed_vcfs_gz_tbi": {
    "name": "Imputed vcfs tbi",
    "description": "Array of indexes for imputed vcfs",
    "type": "Array[File]"
  },
  "output_stdout_log": {
    "name": "Stdout log",
    "description": "Merged stdout log",
    "type": "File"
  },
  "output_stderr_log": {
    "name": "Stderr log",
    "description": "Merged stderr log",
    "type": "File"
  },
  "output_bco": {
    "name": "Bco",
    "description": "BioCompute Object json",
    "type": "File"
  }
}
