{
  "simulate_neat_workflow.simulate_neat.user_defined_targeted_regions_bed_file": "/workflows/resources/miscellaneous/simulated-samples-cnv/22-2dup-42139763-8000/22-2dup-42139763-8000.bed",
  "simulate_neat_workflow.simulate_neat.no_jobs": 1,
  "simulate_neat_workflow.simulate_neat.output_golden_bam_file": true,
  "simulate_neat_workflow.simulate_neat.chromosome": "chr22",
  "simulate_neat_workflow.simulate_neat.predefined_targeted_regions": "whole-reference-sequence",
  "simulate_neat_workflow.simulate_neat.simulated_sample_name": "indel-22-2dup-42139763-8000",
  "simulate_neat_workflow.simulate_neat.vcf_gz_with_variants_to_insert": "/tmp/nssv15162128/nssv15162128/indel-22-2dup-42139763-8000.vcf.gz",
  "simulate_neat_workflow.simulate_neat.average_coverage": 50

}
